{
  "a1vacations" : {
    "name" : "a1vacations",
    "brandId" : 122,
    "dataStore" : "WVR",
    "hosts" : [ {
      "domainName" : "a1vacations.com",
      "httpScheme" : null,
      "hostnameByEnvironment" : {
        "PRODUCTION" : "www.a1vacations.com"
      },
      "redirectsTo" : null,
      "hostname" : "www.a1vacations.com"
    } ],
    "locale" : "en_US",
    "localeVariant" : null,
    "validTravelerSource" : true,
    "validListingSource" : false,
    "humanReadableName" : "A1 Vacations",
    "listingUrlTemplate" : null,
    "listingUrlTemplateWithUnit" : null,
    "alternativeBrandCode" : "A1US",
    "zoneId" : "America/Chicago",
    "currencies" : null,
    "hrefLang" : null,
    "brandType" : null,
    "fullLocale" : "en_US"
  },
  "abritel" : {
    "name" : "abritel",
    "brandId" : 731,
    "dataStore" : "AB",
    "hosts" : [ {
      "domainName" : "abritel.fr",
      "httpScheme" : "https",
      "hostnameByEnvironment" : {
        "TEST" : "test.abritel.fr",
        "STAGE" : "stage.abritel.fr",
        "PRODUCTION" : "www.abritel.fr"
      },
      "redirectsTo" : null,
      "hostname" : "www.abritel.fr"
    }, {
      "domainName" : "abritel.fr",
      "httpScheme" : "https",
      "hostnameByEnvironment" : {
        "PRODUCTION" : "aide.abritel.fr"
      },
      "redirectsTo" : null,
      "hostname" : "aide.abritel.fr"
    } ],
    "locale" : "fr_FR",
    "localeVariant" : "AB",
    "validTravelerSource" : true,
    "validListingSource" : true,
    "humanReadableName" : "Abritel.fr",
    "listingUrlTemplate" : "%s/location-vacances/p%s",
    "listingUrlTemplateWithUnit" : "%s/location-vacances/p%s?uni_id=%s",
    "alternativeBrandCode" : "HAAB",
    "zoneId" : "Europe/Paris",
    "currencies" : [ "EURO" ],
    "hrefLang" : "fr",
    "brandType" : "homeaway",
    "fullLocale" : "fr_FR_AB"
  },
  "affiliate" : {
    "name" : "affiliate",
    "brandId" : 231,
    "dataStore" : "WVR",
    "hosts" : [ {
      "domainName" : "ws.homeaway.com",
      "httpScheme" : null,
      "hostnameByEnvironment" : {
        "TEST" : "ws-test.homeaway.com",
        "STAGE" : "ws-stage.homeaway.com",
        "PRODUCTION" : "ws.homeaway.com"
      },
      "redirectsTo" : null,
      "hostname" : "ws.homeaway.com"
    } ],
    "locale" : "en_US",
    "localeVariant" : "HA",
    "validTravelerSource" : true,
    "validListingSource" : false,
    "humanReadableName" : "ws.homeaway.com",
    "listingUrlTemplate" : "%s/public/listing?id=%s",
    "listingUrlTemplateWithUnit" : "%s/public/listing?id=%s",
    "alternativeBrandCode" : "AFFL",
    "zoneId" : "America/Chicago",
    "currencies" : null,
    "hrefLang" : null,
    "brandType" : null,
    "fullLocale" : "en_US_HA"
  },
  "bnb" : {
    "name" : "bnb",
    "brandId" : 911,
    "dataStore" : "WVR",
    "hosts" : [ {
      "domainName" : "bedandbreakfast.com",
      "httpScheme" : null,
      "hostnameByEnvironment" : {
        "TEST" : "test.bedandbreakfast.com",
        "STAGE" : "stage.bedandbreakfast.com",
        "PRODUCTION" : "www.bedandbreakfast.com"
      },
      "redirectsTo" : null,
      "hostname" : "www.bedandbreakfast.com"
    } ],
    "locale" : "en_US",
    "localeVariant" : "BNB",
    "validTravelerSource" : true,
    "validListingSource" : true,
    "humanReadableName" : "BedandBreakfast.com",
    "listingUrlTemplate" : null,
    "listingUrlTemplateWithUnit" : null,
    "alternativeBrandCode" : "BBUS",
    "zoneId" : "America/Chicago",
    "currencies" : null,
    "hrefLang" : null,
    "brandType" : null,
    "fullLocale" : "en_US_BNB"
  },
  "bookabach" : {
    "name" : "bookabach",
    "brandId" : 137,
    "dataStore" : "WVR",
    "hosts" : [ {
      "domainName" : "bookabach.co.nz",
      "httpScheme" : "https",
      "hostnameByEnvironment" : {
        "TEST" : "test.bookabach.co.nz",
        "STAGE" : "stage.bookabach.co.nz",
        "PRODUCTION" : "www.bookabach.co.nz"
      },
      "redirectsTo" : null,
      "hostname" : "www.bookabach.co.nz"
    } ],
    "locale" : "en_NZ",
    "localeVariant" : "BAB",
    "validTravelerSource" : true,
    "validListingSource" : true,
    "humanReadableName" : "Bookabach.co.nz",
    "listingUrlTemplate" : null,
    "listingUrlTemplateWithUnit" : null,
    "alternativeBrandCode" : "HABO",
    "zoneId" : "Pacific/Auckland",
    "currencies" : null,
    "hrefLang" : "en-nz",
    "brandType" : "homeaway",
    "fullLocale" : "en_NZ_BAB"
  },
  "cyberrentals" : {
    "name" : "cyberrentals",
    "brandId" : 123,
    "dataStore" : "WVR",
    "hosts" : [ {
      "domainName" : "cyberrentals.com",
      "httpScheme" : null,
      "hostnameByEnvironment" : {
        "TEST" : "test.cyberrentals.com",
        "STAGE" : "stage.cyberrentals.com",
        "PRODUCTION" : "www.cyberrentals.com"
      },
      "redirectsTo" : null,
      "hostname" : "www.cyberrentals.com"
    } ],
    "locale" : "en_US",
    "localeVariant" : null,
    "validTravelerSource" : true,
    "validListingSource" : false,
    "humanReadableName" : "CyberRentals.com",
    "listingUrlTemplate" : "%s/rental/p%s",
    "listingUrlTemplateWithUnit" : null,
    "alternativeBrandCode" : "CRUS",
    "zoneId" : "America/Chicago",
    "currencies" : null,
    "hrefLang" : null,
    "brandType" : null,
    "fullLocale" : "en_US"
  },
  "greatrentals" : {
    "name" : "greatrentals",
    "brandId" : 124,
    "dataStore" : "WVR",
    "hosts" : [ {
      "domainName" : "greatrentals.com",
      "httpScheme" : null,
      "hostnameByEnvironment" : {
        "TEST" : "test.greatrentals.com",
        "STAGE" : "stage.greatrentals.com",
        "PRODUCTION" : "www.greatrentals.com"
      },
      "redirectsTo" : null,
      "hostname" : "www.greatrentals.com"
    } ],
    "locale" : "en_US",
    "localeVariant" : null,
    "validTravelerSource" : true,
    "validListingSource" : false,
    "humanReadableName" : "GreatRentals.com",
    "listingUrlTemplate" : "%s/rental-property/p%s",
    "listingUrlTemplateWithUnit" : null,
    "alternativeBrandCode" : "GRUS",
    "zoneId" : "America/Chicago",
    "currencies" : null,
    "hrefLang" : null,
    "brandType" : null,
    "fullLocale" : "en_US"
  },
  "homeaway_ae" : {
    "name" : "homeaway_ae",
    "brandId" : 157,
    "dataStore" : "WVR",
    "hosts" : [ {
      "domainName" : "homeaway.ae",
      "httpScheme" : "https",
      "hostnameByEnvironment" : {
        "TEST" : "test.homeaway.ae",
        "STAGE" : "stage.homeaway.ae",
        "PRODUCTION" : "www.homeaway.ae"
      },
      "redirectsTo" : null,
      "hostname" : "www.homeaway.ae"
    } ],
    "locale" : "ar_AE",
    "localeVariant" : "HA",
    "validTravelerSource" : true,
    "validListingSource" : true,
    "humanReadableName" : "homeaway.ae",
    "listingUrlTemplate" : "%s/rentals/%s",
    "listingUrlTemplateWithUnit" : "%s/rentals/%s?unitId=%s",
    "alternativeBrandCode" : "HAAE",
    "zoneId" : "Asia/Dubai",
    "currencies" : null,
    "hrefLang" : "ar",
    "brandType" : "homeaway",
    "fullLocale" : "ar_AE_HA"
  },
  "homeaway_ar" : {
    "name" : "homeaway_ar",
    "brandId" : 132,
    "dataStore" : "WVR",
    "hosts" : [ {
      "domainName" : "homeaway.com.ar",
      "httpScheme" : "http",
      "hostnameByEnvironment" : {
        "TEST" : "test.homeaway.com.ar",
        "STAGE" : "stage.homeaway.com.ar",
        "PRODUCTION" : "www.homeaway.com.ar"
      },
      "redirectsTo" : null,
      "hostname" : "www.homeaway.com.ar"
    } ],
    "locale" : "es_AR",
    "localeVariant" : "HA",
    "validTravelerSource" : true,
    "validListingSource" : true,
    "humanReadableName" : "HomeAway.com.ar",
    "listingUrlTemplate" : "%s/propiedad/p%s",
    "listingUrlTemplateWithUnit" : "%s/propiedad/p%s?uni_id=%s",
    "alternativeBrandCode" : "HAAR",
    "zoneId" : "America/Argentina/Buenos_Aires",
    "currencies" : [ "ARGENTINA_DOLLAR" ],
    "hrefLang" : "es-ar",
    "brandType" : "homeaway",
    "fullLocale" : "es_AR_HA"
  },
  "homeaway_asia" : {
    "name" : "homeaway_asia",
    "brandId" : 156,
    "dataStore" : "WVR",
    "hosts" : [ {
      "domainName" : "homeaway.asia",
      "httpScheme" : null,
      "hostnameByEnvironment" : {
        "TEST" : "test.homeaway.asia",
        "STAGE" : "stage.homeaway.asia",
        "PRODUCTION" : "www.homeaway.asia"
      },
      "redirectsTo" : null,
      "hostname" : "www.homeaway.asia"
    } ],
    "locale" : "en_SG",
    "localeVariant" : "HA",
    "validTravelerSource" : true,
    "validListingSource" : true,
    "humanReadableName" : "homeaway.asia",
    "listingUrlTemplate" : "%s/vacation-rentals/%s",
    "listingUrlTemplateWithUnit" : "%s/vacation-rentals/%s?unitId=%s",
    "alternativeBrandCode" : "ASIA",
    "zoneId" : "Asia/Singapore",
    "currencies" : null,
    "hrefLang" : null,
    "brandType" : null,
    "fullLocale" : "en_SG_HA"
  },
  "homeaway_at" : {
    "name" : "homeaway_at",
    "brandId" : 656,
    "dataStore" : "VV",
    "hosts" : [ {
      "domainName" : "homeaway.at",
      "httpScheme" : "https",
      "hostnameByEnvironment" : {
        "TEST" : "test.homeaway.at",
        "STAGE" : "stage.homeaway.at",
        "PRODUCTION" : "www.homeaway.at"
      },
      "redirectsTo" : null,
      "hostname" : "www.homeaway.at"
    }, {
      "domainName" : "homeaway.at",
      "httpScheme" : "https",
      "hostnameByEnvironment" : {
        "PRODUCTION" : "hilfe.homeaway.at"
      },
      "redirectsTo" : null,
      "hostname" : "hilfe.homeaway.at"
    } ],
    "locale" : "de_AT",
    "localeVariant" : "HA",
    "validTravelerSource" : true,
    "validListingSource" : true,
    "humanReadableName" : "HomeAway.at",
    "listingUrlTemplate" : "%s/ferienwohnung-ferienhaus/p%s",
    "listingUrlTemplateWithUnit" : "%s/ferienwohnung-ferienhaus/p%s?uni_id=%s",
    "alternativeBrandCode" : "HAAT",
    "zoneId" : "Europe/Vienna",
    "currencies" : [ "EURO" ],
    "hrefLang" : "de-at",
    "brandType" : "homeaway",
    "fullLocale" : "de_AT_HA"
  },
  "homeaway_au" : {
    "name" : "homeaway_au",
    "brandId" : 130,
    "dataStore" : "WVR",
    "hosts" : [ {
      "domainName" : "homeaway.com.au",
      "httpScheme" : "https",
      "hostnameByEnvironment" : {
        "TEST" : "test.homeaway.com.au",
        "STAGE" : "stage.homeaway.com.au",
        "PRODUCTION" : "www.homeaway.com.au"
      },
      "redirectsTo" : null,
      "hostname" : "www.homeaway.com.au"
    }, {
      "domainName" : "homeaway.com.au",
      "httpScheme" : "https",
      "hostnameByEnvironment" : {
        "PRODUCTION" : "help.homeaway.com.au"
      },
      "redirectsTo" : null,
      "hostname" : "help.homeaway.com.au"
    } ],
    "locale" : "en_AU",
    "localeVariant" : "HA",
    "validTravelerSource" : true,
    "validListingSource" : true,
    "humanReadableName" : "HomeAway.com.au",
    "listingUrlTemplate" : "%s/holiday-rental/p%s",
    "listingUrlTemplateWithUnit" : "%s/holiday-rental/p%s?uni_id=%s",
    "alternativeBrandCode" : "HAAU",
    "zoneId" : "Australia/Sydney",
    "currencies" : null,
    "hrefLang" : "en-au",
    "brandType" : "homeaway",
    "fullLocale" : "en_AU_HA"
  },
  "homeaway_br" : {
    "name" : "homeaway_br",
    "brandId" : 126,
    "dataStore" : "WVR",
    "hosts" : [ {
      "domainName" : "aluguetemporada.com.br",
      "httpScheme" : "https",
      "hostnameByEnvironment" : {
        "TEST" : "test.aluguetemporada.com.br",
        "STAGE" : "stage.aluguetemporada.com.br",
        "PRODUCTION" : "www.aluguetemporada.com.br"
      },
      "redirectsTo" : null,
      "hostname" : "www.aluguetemporada.com.br"
    }, {
      "domainName" : "aluguetemporada.com.br",
      "httpScheme" : "https",
      "hostnameByEnvironment" : {
        "PRODUCTION" : "ajuda.aluguetemporada.com.br"
      },
      "redirectsTo" : null,
      "hostname" : "ajuda.aluguetemporada.com.br"
    } ],
    "locale" : "pt_BR",
    "localeVariant" : "HA",
    "validTravelerSource" : true,
    "validListingSource" : true,
    "humanReadableName" : "AlugueTemporada.com.br",
    "listingUrlTemplate" : "%s/imovel/p%s",
    "listingUrlTemplateWithUnit" : "%s/imovel/p%s?uni_id=%s",
    "alternativeBrandCode" : "HABR",
    "zoneId" : "America/Sao_Paulo",
    "currencies" : [ "BRAZIL_DOLLAR" ],
    "hrefLang" : "pt-br",
    "brandType" : "homeaway",
    "fullLocale" : "pt_BR_HA"
  },
  "homeaway_ca" : {
    "name" : "homeaway_ca",
    "brandId" : 127,
    "dataStore" : "WVR",
    "hosts" : [ {
      "domainName" : "homeaway.ca",
      "httpScheme" : "https",
      "hostnameByEnvironment" : {
        "TEST" : "test.homeaway.ca",
        "STAGE" : "stage.homeaway.ca",
        "PRODUCTION" : "www.homeaway.ca"
      },
      "redirectsTo" : null,
      "hostname" : "www.homeaway.ca"
    } ],
    "locale" : "en_CA",
    "localeVariant" : "HA",
    "validTravelerSource" : true,
    "validListingSource" : true,
    "humanReadableName" : "HomeAway.ca",
    "listingUrlTemplate" : "%s/cottage-rental/p%s",
    "listingUrlTemplateWithUnit" : "%s/cottage-rental/p%s?uni_id=%s",
    "alternativeBrandCode" : "HACA",
    "zoneId" : "America/Montreal",
    "currencies" : null,
    "hrefLang" : "en-ca",
    "brandType" : "homeaway",
    "fullLocale" : "en_CA_HA"
  },
  "homeaway_cafr" : {
    "name" : "homeaway_cafr",
    "brandId" : 129,
    "dataStore" : "WVR",
    "hosts" : [ {
      "domainName" : "fr.homeaway.ca",
      "httpScheme" : null,
      "hostnameByEnvironment" : {
        "TEST" : "test.fr.homeaway.ca",
        "STAGE" : "stage.fr.homeaway.ca",
        "PRODUCTION" : "fr.homeaway.ca"
      },
      "redirectsTo" : null,
      "hostname" : "fr.homeaway.ca"
    } ],
    "locale" : "fr_CA",
    "localeVariant" : "HA",
    "validTravelerSource" : true,
    "validListingSource" : true,
    "humanReadableName" : "HomeAway.ca.fr",
    "listingUrlTemplate" : "%s/location/p%s",
    "listingUrlTemplateWithUnit" : "%s/location/p%s?uni_id=%s",
    "alternativeBrandCode" : "HACF",
    "zoneId" : "America/Montreal",
    "currencies" : null,
    "hrefLang" : "fr-ca",
    "brandType" : null,
    "fullLocale" : "fr_CA_HA"
  },
  "homeaway_cl" : {
    "name" : "homeaway_cl",
    "brandId" : 155,
    "dataStore" : "WVR",
    "hosts" : [ {
      "domainName" : "homeaway.cl",
      "httpScheme" : "http",
      "hostnameByEnvironment" : {
        "TEST" : "test.homeaway.cl",
        "STAGE" : "stage.homeaway.cl",
        "PRODUCTION" : "www.homeaway.cl"
      },
      "redirectsTo" : null,
      "hostname" : "www.homeaway.cl"
    } ],
    "locale" : "es_CL",
    "localeVariant" : "HA",
    "validTravelerSource" : true,
    "validListingSource" : true,
    "humanReadableName" : "homeaway.cl",
    "listingUrlTemplate" : "%s/vacation-rentals/%s",
    "listingUrlTemplateWithUnit" : "%s/vacation-rentals/%s?unitId=%s",
    "alternativeBrandCode" : "HACL",
    "zoneId" : "America/Santiago",
    "currencies" : null,
    "hrefLang" : "es-cl",
    "brandType" : "homeaway",
    "fullLocale" : "es_CL_HA"
  },
  "homeaway_cn" : {
    "name" : "homeaway_cn",
    "brandId" : 140,
    "dataStore" : "WVR",
    "hosts" : [ {
      "domainName" : "homeaway.com.cn",
      "httpScheme" : "http",
      "hostnameByEnvironment" : {
        "TEST" : "test.homeaway.com.cn",
        "STAGE" : "stage.homeaway.com.cn",
        "PRODUCTION" : "www.homeaway.com.cn"
      },
      "redirectsTo" : null,
      "hostname" : "www.homeaway.com.cn"
    } ],
    "locale" : "zh_CN",
    "localeVariant" : "HA",
    "validTravelerSource" : true,
    "validListingSource" : true,
    "humanReadableName" : "homeaway.com.cn",
    "listingUrlTemplate" : "%s/vacation-rentals/%s",
    "listingUrlTemplateWithUnit" : "%s/vacation-rentals/%s?unitId=%s",
    "alternativeBrandCode" : "HACN",
    "zoneId" : "Asia/Shanghai",
    "currencies" : null,
    "hrefLang" : "zh",
    "brandType" : "homeaway",
    "fullLocale" : "zh_CN_HA"
  },
  "homeaway_co" : {
    "name" : "homeaway_co",
    "brandId" : 131,
    "dataStore" : "WVR",
    "hosts" : [ {
      "domainName" : "homeaway.com.co",
      "httpScheme" : "http",
      "hostnameByEnvironment" : {
        "TEST" : "test.homeaway.com.co",
        "STAGE" : "stage.homeaway.com.co",
        "PRODUCTION" : "www.homeaway.com.co"
      },
      "redirectsTo" : null,
      "hostname" : "www.homeaway.com.co"
    } ],
    "locale" : "es_CO",
    "localeVariant" : "HA",
    "validTravelerSource" : true,
    "validListingSource" : true,
    "humanReadableName" : "HomeAway.com.co",
    "listingUrlTemplate" : "%s/propiedad/p%s",
    "listingUrlTemplateWithUnit" : "%s/propiedad/p%s?uni_id=%s",
    "alternativeBrandCode" : "HACO",
    "zoneId" : "America/Bogota",
    "currencies" : [ "COLOMBIA_DOLLAR" ],
    "hrefLang" : "es-co",
    "brandType" : "homeaway",
    "fullLocale" : "es_CO_HA"
  },
  "homeaway_de" : {
    "name" : "homeaway_de",
    "brandId" : 651,
    "dataStore" : "VV",
    "hosts" : [ {
      "domainName" : "fewo-direkt.de",
      "httpScheme" : "https",
      "hostnameByEnvironment" : {
        "TEST" : "test.fewo-direkt.de",
        "STAGE" : "stage.fewo-direkt.de",
        "PRODUCTION" : "www.fewo-direkt.de"
      },
      "redirectsTo" : null,
      "hostname" : "www.fewo-direkt.de"
    }, {
      "domainName" : "fewo-direkt.de",
      "httpScheme" : "https",
      "hostnameByEnvironment" : {
        "PRODUCTION" : "test.fewo-direkt.de"
      },
      "redirectsTo" : "www.fewo-direkt.de",
      "hostname" : "test.fewo-direkt.de"
    }, {
      "domainName" : "fewo-direkt.de",
      "httpScheme" : "https",
      "hostnameByEnvironment" : {
        "PRODUCTION" : "hilfe.fewo-direkt.de"
      },
      "redirectsTo" : null,
      "hostname" : "hilfe.fewo-direkt.de"
    } ],
    "locale" : "de_DE",
    "localeVariant" : "HA",
    "validTravelerSource" : true,
    "validListingSource" : true,
    "humanReadableName" : "FeWo-direkt.de",
    "listingUrlTemplate" : "%s/ferienwohnung-ferienhaus/p%s",
    "listingUrlTemplateWithUnit" : "%s/ferienwohnung-ferienhaus/p%s?uni_id=%s",
    "alternativeBrandCode" : "HADE",
    "zoneId" : "Europe/Berlin",
    "currencies" : [ "EURO" ],
    "hrefLang" : "de",
    "brandType" : "homeaway",
    "fullLocale" : "de_DE_HA"
  },
  "homeaway_dk" : {
    "name" : "homeaway_dk",
    "brandId" : 621,
    "dataStore" : "HR",
    "hosts" : [ {
      "domainName" : "homeaway.dk",
      "httpScheme" : "https",
      "hostnameByEnvironment" : {
        "TEST" : "test.homeaway.dk",
        "STAGE" : "stage.homeaway.dk",
        "PRODUCTION" : "www.homeaway.dk"
      },
      "redirectsTo" : null,
      "hostname" : "www.homeaway.dk"
    }, {
      "domainName" : "homeaway.dk",
      "httpScheme" : "https",
      "hostnameByEnvironment" : {
        "PRODUCTION" : "help.homeaway.dk"
      },
      "redirectsTo" : null,
      "hostname" : "help.homeaway.dk"
    } ],
    "locale" : "da_DK",
    "localeVariant" : "HA",
    "validTravelerSource" : true,
    "validListingSource" : true,
    "humanReadableName" : "HomeAway.dk",
    "listingUrlTemplate" : "%s/feriehus/p%s",
    "listingUrlTemplateWithUnit" : "%s/feriehus/p%s?uni_id=%s",
    "alternativeBrandCode" : "HADK",
    "zoneId" : "Europe/Copenhagen",
    "currencies" : [ "DENMARK_KRONE" ],
    "hrefLang" : "da",
    "brandType" : "homeaway",
    "fullLocale" : "da_DK_HA"
  },
  "homeaway_ec" : {
    "name" : "homeaway_ec",
    "brandId" : 152,
    "dataStore" : "WVR",
    "hosts" : [ {
      "domainName" : "homeaway.ec",
      "httpScheme" : "http",
      "hostnameByEnvironment" : {
        "TEST" : "test.homeaway.ec",
        "STAGE" : "stage.homeaway.ec",
        "PRODUCTION" : "www.homeaway.ec"
      },
      "redirectsTo" : null,
      "hostname" : "www.homeaway.ec"
    } ],
    "locale" : "es_EC",
    "localeVariant" : "HA",
    "validTravelerSource" : true,
    "validListingSource" : true,
    "humanReadableName" : "homeaway.ec",
    "listingUrlTemplate" : "%s/vacation-rentals/%s",
    "listingUrlTemplateWithUnit" : "%s/vacation-rentals/%s?unitId=%s",
    "alternativeBrandCode" : "HAEC",
    "zoneId" : "America/Guayaquil",
    "currencies" : null,
    "hrefLang" : "es-ec",
    "brandType" : "homeaway",
    "fullLocale" : "es_EC_HA"
  },
  "homeaway_es" : {
    "name" : "homeaway_es",
    "brandId" : 615,
    "dataStore" : "HR",
    "hosts" : [ {
      "domainName" : "homeaway.es",
      "httpScheme" : "https",
      "hostnameByEnvironment" : {
        "TEST" : "test.homeaway.es",
        "STAGE" : "stage.homeaway.es",
        "PRODUCTION" : "www.homeaway.es"
      },
      "redirectsTo" : null,
      "hostname" : "www.homeaway.es"
    }, {
      "domainName" : "homeaway.es",
      "httpScheme" : "https",
      "hostnameByEnvironment" : {
        "PRODUCTION" : "ayuda.homeaway.es"
      },
      "redirectsTo" : null,
      "hostname" : "ayuda.homeaway.es"
    } ],
    "locale" : "es_ES",
    "localeVariant" : "HA",
    "validTravelerSource" : true,
    "validListingSource" : true,
    "humanReadableName" : "HomeAway.es",
    "listingUrlTemplate" : "%s/p%s",
    "listingUrlTemplateWithUnit" : "%s/p%s?uni_id=%s",
    "alternativeBrandCode" : "HAES",
    "zoneId" : "Europe/Madrid",
    "currencies" : [ "EURO" ],
    "hrefLang" : "es",
    "brandType" : "homeaway",
    "fullLocale" : "es_ES_HA"
  },
  "homeaway_fi" : {
    "name" : "homeaway_fi",
    "brandId" : 622,
    "dataStore" : "HR",
    "hosts" : [ {
      "domainName" : "homeaway.fi",
      "httpScheme" : "https",
      "hostnameByEnvironment" : {
        "TEST" : "test.homeaway.fi",
        "STAGE" : "stage.homeaway.fi",
        "PRODUCTION" : "www.homeaway.fi"
      },
      "redirectsTo" : null,
      "hostname" : "www.homeaway.fi"
    } ],
    "locale" : "fi_FI",
    "localeVariant" : "HA",
    "validTravelerSource" : true,
    "validListingSource" : true,
    "humanReadableName" : "HomeAway.fi",
    "listingUrlTemplate" : "%s/loma-asunto/p%s",
    "listingUrlTemplateWithUnit" : "%s/loma-asunto/p%s?uni_id=%s",
    "alternativeBrandCode" : "HAFI",
    "zoneId" : "Europe/Helsinki",
    "currencies" : null,
    "hrefLang" : "fi",
    "brandType" : "homeaway",
    "fullLocale" : "fi_FI_HA"
  },
  "homeaway_fr" : {
    "name" : "homeaway_fr",
    "brandId" : 612,
    "dataStore" : "HR",
    "hosts" : [ {
      "domainName" : "homeaway.fr",
      "httpScheme" : null,
      "hostnameByEnvironment" : {
        "TEST" : "test.homeaway.fr",
        "STAGE" : "stage.homeaway.fr",
        "PRODUCTION" : "www.homeaway.fr"
      },
      "redirectsTo" : null,
      "hostname" : "www.homeaway.fr"
    } ],
    "locale" : "fr_FR",
    "localeVariant" : "HA",
    "validTravelerSource" : true,
    "validListingSource" : true,
    "humanReadableName" : "HomeAway.fr",
    "listingUrlTemplate" : null,
    "listingUrlTemplateWithUnit" : null,
    "alternativeBrandCode" : "HAUF",
    "zoneId" : "Europe/Paris",
    "currencies" : null,
    "hrefLang" : null,
    "brandType" : null,
    "fullLocale" : "fr_FR_HA"
  },
  "homeaway_gr" : {
    "name" : "homeaway_gr",
    "brandId" : 635,
    "dataStore" : "HR",
    "hosts" : [ {
      "domainName" : "homeaway.gr",
      "httpScheme" : "https",
      "hostnameByEnvironment" : {
        "TEST" : "test.homeaway.gr",
        "STAGE" : "stage.homeaway.gr",
        "PRODUCTION" : "www.homeaway.gr"
      },
      "redirectsTo" : null,
      "hostname" : "www.homeaway.gr"
    }, {
      "domainName" : "homeaway.gr",
      "httpScheme" : "https",
      "hostnameByEnvironment" : {
        "PRODUCTION" : "help.homeaway.gr"
      },
      "redirectsTo" : null,
      "hostname" : "help.homeaway.gr"
    } ],
    "locale" : "el_GR",
    "localeVariant" : "HA",
    "validTravelerSource" : true,
    "validListingSource" : true,
    "humanReadableName" : "HomeAway.gr",
    "listingUrlTemplate" : "%s/ενοικιάσεις-εξοχικών-κατοικιών/p%s",
    "listingUrlTemplateWithUnit" : "%s/ενοικιάσεις-εξοχικών-κατοικιών/p%s?uni_id=%s",
    "alternativeBrandCode" : "HAGR",
    "zoneId" : "Europe/Athens",
    "currencies" : null,
    "hrefLang" : "el",
    "brandType" : "homeaway",
    "fullLocale" : "el_GR_HA"
  },
  "homeaway_hk" : {
    "name" : "homeaway_hk",
    "brandId" : 141,
    "dataStore" : "WVR",
    "hosts" : [ {
      "domainName" : "homeaway.hk",
      "httpScheme" : "http",
      "hostnameByEnvironment" : {
        "TEST" : "test.homeaway.hk",
        "STAGE" : "stage.homeaway.hk",
        "PRODUCTION" : "www.homeaway.hk"
      },
      "redirectsTo" : null,
      "hostname" : "www.homeaway.hk"
    } ],
    "locale" : "zh_HK",
    "localeVariant" : "HA",
    "validTravelerSource" : true,
    "validListingSource" : true,
    "humanReadableName" : "homeaway.hk",
    "listingUrlTemplate" : "%s/vacation-rentals/%s",
    "listingUrlTemplateWithUnit" : "%s/vacation-rentals/%s?unitId=%s",
    "alternativeBrandCode" : "HAHK",
    "zoneId" : "Asia/Hong_Kong",
    "currencies" : null,
    "hrefLang" : "zh-hk",
    "brandType" : "homeaway",
    "fullLocale" : "zh_HK_HA"
  },
  "homeaway_id" : {
    "name" : "homeaway_id",
    "brandId" : 142,
    "dataStore" : "WVR",
    "hosts" : [ {
      "domainName" : "homeaway.co.id",
      "httpScheme" : "http",
      "hostnameByEnvironment" : {
        "TEST" : "test.homeaway.co.id",
        "STAGE" : "stage.homeaway.co.id",
        "PRODUCTION" : "www.homeaway.co.id"
      },
      "redirectsTo" : null,
      "hostname" : "www.homeaway.co.id"
    } ],
    "locale" : "in_ID",
    "localeVariant" : "HA",
    "validTravelerSource" : true,
    "validListingSource" : true,
    "humanReadableName" : "homeaway.co.id",
    "listingUrlTemplate" : "%s/vacation-rentals/%s",
    "listingUrlTemplateWithUnit" : "%s/vacation-rentals/%s?unitId=%s",
    "alternativeBrandCode" : "HAID",
    "zoneId" : "Asia/Jakarta",
    "currencies" : null,
    "hrefLang" : "id",
    "brandType" : "homeaway",
    "fullLocale" : "in_ID_HA"
  },
  "homeaway_ie" : {
    "name" : "homeaway_ie",
    "brandId" : 623,
    "dataStore" : "HR",
    "hosts" : [ {
      "domainName" : "homeaway.ie",
      "httpScheme" : null,
      "hostnameByEnvironment" : {
        "TEST" : "test.homeaway.ie",
        "STAGE" : "stage.homeaway.ie",
        "PRODUCTION" : "www.homeaway.ie"
      },
      "redirectsTo" : null,
      "hostname" : "www.homeaway.ie"
    } ],
    "locale" : "en_IE",
    "localeVariant" : "HA",
    "validTravelerSource" : true,
    "validListingSource" : true,
    "humanReadableName" : "HomeAway.ie",
    "listingUrlTemplate" : "%s/p%s",
    "listingUrlTemplateWithUnit" : "%s/p%s",
    "alternativeBrandCode" : "HAIE",
    "zoneId" : "Europe/Dublin",
    "currencies" : null,
    "hrefLang" : null,
    "brandType" : null,
    "fullLocale" : "en_IE_HA"
  },
  "homeaway_in" : {
    "name" : "homeaway_in",
    "brandId" : 624,
    "dataStore" : "HR",
    "hosts" : [ {
      "domainName" : "homeaway.co.in",
      "httpScheme" : "http",
      "hostnameByEnvironment" : {
        "TEST" : "test.homeaway.co.in",
        "STAGE" : "stage.homeaway.co.in",
        "PRODUCTION" : "www.homeaway.co.in"
      },
      "redirectsTo" : null,
      "hostname" : "www.homeaway.co.in"
    } ],
    "locale" : "en_IN",
    "localeVariant" : "HA",
    "validTravelerSource" : true,
    "validListingSource" : true,
    "humanReadableName" : "HomeAway.co.in",
    "listingUrlTemplate" : "%s/holiday-home/p%s",
    "listingUrlTemplateWithUnit" : "%s/holiday-home/p%s?uni_id=%s",
    "alternativeBrandCode" : "HAIN",
    "zoneId" : "Asia/Kolkata",
    "currencies" : null,
    "hrefLang" : "en-in",
    "brandType" : "homeaway",
    "fullLocale" : "en_IN_HA"
  },
  "homeaway_it" : {
    "name" : "homeaway_it",
    "brandId" : 614,
    "dataStore" : "HR",
    "hosts" : [ {
      "domainName" : "homeaway.it",
      "httpScheme" : "https",
      "hostnameByEnvironment" : {
        "TEST" : "test.homeaway.it",
        "STAGE" : "stage.homeaway.it",
        "PRODUCTION" : "www.homeaway.it"
      },
      "redirectsTo" : null,
      "hostname" : "www.homeaway.it"
    }, {
      "domainName" : "homeaway.it",
      "httpScheme" : "https",
      "hostnameByEnvironment" : {
        "PRODUCTION" : "aiuto.homeaway.it"
      },
      "redirectsTo" : null,
      "hostname" : "aiuto.homeaway.it"
    } ],
    "locale" : "it_IT",
    "localeVariant" : "HA",
    "validTravelerSource" : true,
    "validListingSource" : true,
    "humanReadableName" : "HomeAway.it",
    "listingUrlTemplate" : "%s/affitto-vacanze/p%s",
    "listingUrlTemplateWithUnit" : "%s/affitto-vacanze/p%s?uni_id=%s",
    "alternativeBrandCode" : "HAIT",
    "zoneId" : "Europe/Rome",
    "currencies" : [ "EURO" ],
    "hrefLang" : "it",
    "brandType" : "homeaway",
    "fullLocale" : "it_IT_HA"
  },
  "homeaway_jp" : {
    "name" : "homeaway_jp",
    "brandId" : 143,
    "dataStore" : "WVR",
    "hosts" : [ {
      "domainName" : "homeaway.jp",
      "httpScheme" : "http",
      "hostnameByEnvironment" : {
        "TEST" : "test.homeaway.jp",
        "STAGE" : "stage.homeaway.jp",
        "PRODUCTION" : "www.homeaway.jp"
      },
      "redirectsTo" : null,
      "hostname" : "www.homeaway.jp"
    } ],
    "locale" : "ja_JP",
    "localeVariant" : "HA",
    "validTravelerSource" : true,
    "validListingSource" : true,
    "humanReadableName" : "homeaway.jp",
    "listingUrlTemplate" : "%s/vacation-rentals/%s",
    "listingUrlTemplateWithUnit" : "%s/vacation-rentals/%s?unitId=%s",
    "alternativeBrandCode" : "HAJP",
    "zoneId" : "Asia/Tokyo",
    "currencies" : null,
    "hrefLang" : "ja",
    "brandType" : "homeaway",
    "fullLocale" : "ja_JP_HA"
  },
  "homeaway_kr" : {
    "name" : "homeaway_kr",
    "brandId" : 144,
    "dataStore" : "WVR",
    "hosts" : [ {
      "domainName" : "homeaway.co.kr",
      "httpScheme" : "http",
      "hostnameByEnvironment" : {
        "TEST" : "test.homeaway.co.kr",
        "STAGE" : "stage.homeaway.co.kr",
        "PRODUCTION" : "www.homeaway.co.kr"
      },
      "redirectsTo" : null,
      "hostname" : "www.homeaway.co.kr"
    } ],
    "locale" : "ko_KR",
    "localeVariant" : "HA",
    "validTravelerSource" : true,
    "validListingSource" : true,
    "humanReadableName" : "homeaway.co.kr",
    "listingUrlTemplate" : "%s/vacation-rentals/%s",
    "listingUrlTemplateWithUnit" : "%s/vacation-rentals/%s?unitId=%s",
    "alternativeBrandCode" : "HAKR",
    "zoneId" : "Asia/Seoul",
    "currencies" : null,
    "hrefLang" : "ko",
    "brandType" : "homeaway",
    "fullLocale" : "ko_KR_HA"
  },
  "homeaway_lk" : {
    "name" : "homeaway_lk",
    "brandId" : 145,
    "dataStore" : "WVR",
    "hosts" : [ {
      "domainName" : "homeaway.lk",
      "httpScheme" : "http",
      "hostnameByEnvironment" : {
        "TEST" : "test.homeaway.lk",
        "STAGE" : "stage.homeaway.lk",
        "PRODUCTION" : "www.homeaway.lk"
      },
      "redirectsTo" : null,
      "hostname" : "www.homeaway.lk"
    } ],
    "locale" : "en_LK",
    "localeVariant" : "HA",
    "validTravelerSource" : true,
    "validListingSource" : true,
    "humanReadableName" : "homeaway.lk",
    "listingUrlTemplate" : "%s/vacation-rentals/%s",
    "listingUrlTemplateWithUnit" : "%s/vacation-rentals/%s?unitId=%s",
    "alternativeBrandCode" : "HALK",
    "zoneId" : "Asia/Colombo",
    "currencies" : null,
    "hrefLang" : "si",
    "brandType" : "homeaway",
    "fullLocale" : "en_LK_HA"
  },
  "homeaway_mx" : {
    "name" : "homeaway_mx",
    "brandId" : 128,
    "dataStore" : "WVR",
    "hosts" : [ {
      "domainName" : "homeaway.com.mx",
      "httpScheme" : "https",
      "hostnameByEnvironment" : {
        "TEST" : "test.homeaway.com.mx",
        "STAGE" : "stage.homeaway.com.mx",
        "PRODUCTION" : "www.homeaway.com.mx"
      },
      "redirectsTo" : null,
      "hostname" : "www.homeaway.com.mx"
    } ],
    "locale" : "es_MX",
    "localeVariant" : "HA",
    "validTravelerSource" : true,
    "validListingSource" : true,
    "humanReadableName" : "HomeAway.com.mx",
    "listingUrlTemplate" : "%s/propiedad/p%s",
    "listingUrlTemplateWithUnit" : "%s/propiedad/p%s?uni_id=%s",
    "alternativeBrandCode" : "HAMX",
    "zoneId" : "America/Mexico_City",
    "currencies" : null,
    "hrefLang" : "es-mx",
    "brandType" : "homeaway",
    "fullLocale" : "es_MX_HA"
  },
  "homeaway_my" : {
    "name" : "homeaway_my",
    "brandId" : 146,
    "dataStore" : "WVR",
    "hosts" : [ {
      "domainName" : "homeaway.com.my",
      "httpScheme" : "http",
      "hostnameByEnvironment" : {
        "TEST" : "test.homeaway.com.my",
        "STAGE" : "stage.homeaway.com.my",
        "PRODUCTION" : "www.homeaway.com.my"
      },
      "redirectsTo" : null,
      "hostname" : "www.homeaway.com.my"
    } ],
    "locale" : "en_MY",
    "localeVariant" : "HA",
    "validTravelerSource" : true,
    "validListingSource" : true,
    "humanReadableName" : "homeaway.com.my",
    "listingUrlTemplate" : "%s/vacation-rentals/%s",
    "listingUrlTemplateWithUnit" : "%s/vacation-rentals/%s?unitId=%s",
    "alternativeBrandCode" : "HAMY",
    "zoneId" : "Asia/Kuala_Lumpur",
    "currencies" : null,
    "hrefLang" : "en-my",
    "brandType" : "homeaway",
    "fullLocale" : "en_MY_HA"
  },
  "homeaway_nl" : {
    "name" : "homeaway_nl",
    "brandId" : 617,
    "dataStore" : "HR",
    "hosts" : [ {
      "domainName" : "homeaway.nl",
      "httpScheme" : "https",
      "hostnameByEnvironment" : {
        "TEST" : "test.homeaway.nl",
        "STAGE" : "stage.homeaway.nl",
        "PRODUCTION" : "www.homeaway.nl"
      },
      "redirectsTo" : null,
      "hostname" : "www.homeaway.nl"
    }, {
      "domainName" : "homeaway.nl",
      "httpScheme" : "https",
      "hostnameByEnvironment" : {
        "PRODUCTION" : "help.homeaway.nl"
      },
      "redirectsTo" : null,
      "hostname" : "help.homeaway.nl"
    } ],
    "locale" : "nl_NL",
    "localeVariant" : "HA",
    "validTravelerSource" : true,
    "validListingSource" : true,
    "humanReadableName" : "HomeAway.nl",
    "listingUrlTemplate" : "%s/vakantiewoning/p%s",
    "listingUrlTemplateWithUnit" : "%s/vakantiewoning/p%s?uni_id=%s",
    "alternativeBrandCode" : "HANL",
    "zoneId" : "Europe/Amsterdam",
    "currencies" : [ "EURO" ],
    "hrefLang" : "nl",
    "brandType" : "homeaway",
    "fullLocale" : "nl_NL_HA"
  },
  "homeaway_no" : {
    "name" : "homeaway_no",
    "brandId" : 619,
    "dataStore" : "HR",
    "hosts" : [ {
      "domainName" : "homeaway.no",
      "httpScheme" : "https",
      "hostnameByEnvironment" : {
        "TEST" : "test.homeaway.no",
        "STAGE" : "stage.homeaway.no",
        "PRODUCTION" : "www.homeaway.no"
      },
      "redirectsTo" : null,
      "hostname" : "www.homeaway.no"
    }, {
      "domainName" : "homeaway.no",
      "httpScheme" : "https",
      "hostnameByEnvironment" : {
        "PRODUCTION" : "help.homeaway.no"
      },
      "redirectsTo" : null,
      "hostname" : "help.homeaway.no"
    } ],
    "locale" : "no_NO",
    "localeVariant" : "HA",
    "validTravelerSource" : true,
    "validListingSource" : true,
    "humanReadableName" : "HomeAway.no",
    "listingUrlTemplate" : "%s/feriebolig/p%s",
    "listingUrlTemplateWithUnit" : "%s/feriebolig/p%s?uni_id=%s",
    "alternativeBrandCode" : "HANO",
    "zoneId" : "Europe/Oslo",
    "currencies" : [ "NORWAY_KRONE" ],
    "hrefLang" : "no",
    "brandType" : "homeaway",
    "fullLocale" : "no_NO_HA"
  },
  "homeaway_nz" : {
    "name" : "homeaway_nz",
    "brandId" : 133,
    "dataStore" : "WVR",
    "hosts" : [ {
      "domainName" : "homeaway.co.nz",
      "httpScheme" : null,
      "hostnameByEnvironment" : {
        "TEST" : "test.homeaway.co.nz",
        "STAGE" : "stage.homeaway.co.nz",
        "PRODUCTION" : "www.homeaway.co.nz"
      },
      "redirectsTo" : null,
      "hostname" : "www.homeaway.co.nz"
    } ],
    "locale" : "en_NZ",
    "localeVariant" : "HA",
    "validTravelerSource" : true,
    "validListingSource" : false,
    "humanReadableName" : "HomeAway.co.nz",
    "listingUrlTemplate" : "%s/holiday-accommodation/p%s",
    "listingUrlTemplateWithUnit" : "%s/holiday-accommodation/p%s?uni_id=%s",
    "alternativeBrandCode" : "HANZ",
    "zoneId" : "Pacific/Auckland",
    "currencies" : null,
    "hrefLang" : null,
    "brandType" : null,
    "fullLocale" : "en_NZ_HA"
  },
  "homeaway_pe" : {
    "name" : "homeaway_pe",
    "brandId" : 154,
    "dataStore" : "WVR",
    "hosts" : [ {
      "domainName" : "homeaway.com.pe",
      "httpScheme" : "http",
      "hostnameByEnvironment" : {
        "TEST" : "test.homeaway.com.pe",
        "STAGE" : "stage.homeaway.com.pe",
        "PRODUCTION" : "www.homeaway.com.pe"
      },
      "redirectsTo" : null,
      "hostname" : "www.homeaway.com.pe"
    } ],
    "locale" : "es_PE",
    "localeVariant" : "HA",
    "validTravelerSource" : true,
    "validListingSource" : true,
    "humanReadableName" : "homeaway.com.pe",
    "listingUrlTemplate" : "%s/vacation-rentals/%s",
    "listingUrlTemplateWithUnit" : "%s/vacation-rentals/%s?unitId=%s",
    "alternativeBrandCode" : "HAPE",
    "zoneId" : "America/Lima",
    "currencies" : null,
    "hrefLang" : "es-pe",
    "brandType" : "homeaway",
    "fullLocale" : "es_PE_HA"
  },
  "homeaway_ph" : {
    "name" : "homeaway_ph",
    "brandId" : 147,
    "dataStore" : "WVR",
    "hosts" : [ {
      "domainName" : "homeaway.com.ph",
      "httpScheme" : "http",
      "hostnameByEnvironment" : {
        "TEST" : "test.homeaway.com.ph",
        "STAGE" : "stage.homeaway.com.ph",
        "PRODUCTION" : "www.homeaway.com.ph"
      },
      "redirectsTo" : null,
      "hostname" : "www.homeaway.com.ph"
    } ],
    "locale" : "en_PH",
    "localeVariant" : "HA",
    "validTravelerSource" : true,
    "validListingSource" : true,
    "humanReadableName" : "homeaway.com.ph",
    "listingUrlTemplate" : "%s/vacation-rentals/%s",
    "listingUrlTemplateWithUnit" : "%s/vacation-rentals/%s?unitId=%s",
    "alternativeBrandCode" : "HAPH",
    "zoneId" : "Asia/Manila",
    "currencies" : null,
    "hrefLang" : "en-ph",
    "brandType" : "homeaway",
    "fullLocale" : "en_PH_HA"
  },
  "homeaway_pl" : {
    "name" : "homeaway_pl",
    "brandId" : 629,
    "dataStore" : "HR",
    "hosts" : [ {
      "domainName" : "homeaway.pl",
      "httpScheme" : "https",
      "hostnameByEnvironment" : {
        "TEST" : "test.homeaway.pl",
        "STAGE" : "stage.homeaway.pl",
        "PRODUCTION" : "www.homeaway.pl"
      },
      "redirectsTo" : null,
      "hostname" : "www.homeaway.pl"
    } ],
    "locale" : "pl_PL",
    "localeVariant" : "HA",
    "validTravelerSource" : true,
    "validListingSource" : true,
    "humanReadableName" : "HomeAway.pl",
    "listingUrlTemplate" : "%s/apartament-wakacyjny/p%s",
    "listingUrlTemplateWithUnit" : "%s/apartament-wakacyjny/p%s?uni_id=%s",
    "alternativeBrandCode" : "HAPL",
    "zoneId" : "Europe/Warsaw",
    "currencies" : null,
    "hrefLang" : "pl",
    "brandType" : "homeaway",
    "fullLocale" : "pl_PL_HA"
  },
  "homeaway_pt" : {
    "name" : "homeaway_pt",
    "brandId" : 616,
    "dataStore" : "HR",
    "hosts" : [ {
      "domainName" : "homeaway.pt",
      "httpScheme" : "https",
      "hostnameByEnvironment" : {
        "TEST" : "test.homeaway.pt",
        "STAGE" : "stage.homeaway.pt",
        "PRODUCTION" : "www.homeaway.pt"
      },
      "redirectsTo" : null,
      "hostname" : "www.homeaway.pt"
    }, {
      "domainName" : "homeaway.pt",
      "httpScheme" : "https",
      "hostnameByEnvironment" : {
        "PRODUCTION" : "ajuda.homeaway.pt"
      },
      "redirectsTo" : null,
      "hostname" : "ajuda.homeaway.pt"
    } ],
    "locale" : "pt_PT",
    "localeVariant" : "HA",
    "validTravelerSource" : true,
    "validListingSource" : true,
    "humanReadableName" : "HomeAway.pt",
    "listingUrlTemplate" : "%s/arrendamento-ferias/p%s",
    "listingUrlTemplateWithUnit" : "%s/arrendamento-ferias/p%s?uni_id=%s",
    "alternativeBrandCode" : "HAPT",
    "zoneId" : "Europe/Lisbon",
    "currencies" : [ "EURO" ],
    "hrefLang" : "pt",
    "brandType" : "homeaway",
    "fullLocale" : "pt_PT_HA"
  },
  "homeaway_ru" : {
    "name" : "homeaway_ru",
    "brandId" : 628,
    "dataStore" : "HR",
    "hosts" : [ {
      "domainName" : "homeaway.ru",
      "httpScheme" : "http",
      "hostnameByEnvironment" : {
        "TEST" : "test.homeaway.ru",
        "STAGE" : "stage.homeaway.ru",
        "PRODUCTION" : "www.homeaway.ru"
      },
      "redirectsTo" : null,
      "hostname" : "www.homeaway.ru"
    } ],
    "locale" : "ru_RU",
    "localeVariant" : "HA",
    "validTravelerSource" : true,
    "validListingSource" : true,
    "humanReadableName" : "HomeAway.ru",
    "listingUrlTemplate" : "%s/p%s",
    "listingUrlTemplateWithUnit" : "%s/p%s?uni_id=%s",
    "alternativeBrandCode" : "HARU",
    "zoneId" : "Europe/Moscow",
    "currencies" : null,
    "hrefLang" : "ru",
    "brandType" : "homeaway",
    "fullLocale" : "ru_RU_HA"
  },
  "homeaway_se" : {
    "name" : "homeaway_se",
    "brandId" : 618,
    "dataStore" : "HR",
    "hosts" : [ {
      "domainName" : "homeaway.se",
      "httpScheme" : "https",
      "hostnameByEnvironment" : {
        "TEST" : "test.homeaway.se",
        "STAGE" : "stage.homeaway.se",
        "PRODUCTION" : "www.homeaway.se"
      },
      "redirectsTo" : null,
      "hostname" : "www.homeaway.se"
    }, {
      "domainName" : "homeaway.se",
      "httpScheme" : "https",
      "hostnameByEnvironment" : {
        "PRODUCTION" : "help.homeaway.se"
      },
      "redirectsTo" : null,
      "hostname" : "help.homeaway.se"
    } ],
    "locale" : "sv_SE",
    "localeVariant" : "HA",
    "validTravelerSource" : true,
    "validListingSource" : true,
    "humanReadableName" : "HomeAway.se",
    "listingUrlTemplate" : "%s/semesterhus/p%s",
    "listingUrlTemplateWithUnit" : "%s/semesterhus/p%s?uni_id=%s",
    "alternativeBrandCode" : "HASE",
    "zoneId" : "Europe/Stockholm",
    "currencies" : [ "SWEDEN_KRONA" ],
    "hrefLang" : "sv",
    "brandType" : "homeaway",
    "fullLocale" : "sv_SE_HA"
  },
  "homeaway_sg" : {
    "name" : "homeaway_sg",
    "brandId" : 148,
    "dataStore" : "WVR",
    "hosts" : [ {
      "domainName" : "homeaway.com.sg",
      "httpScheme" : "http",
      "hostnameByEnvironment" : {
        "TEST" : "test.homeaway.com.sg",
        "STAGE" : "stage.homeaway.com.sg",
        "PRODUCTION" : "www.homeaway.com.sg"
      },
      "redirectsTo" : null,
      "hostname" : "www.homeaway.com.sg"
    } ],
    "locale" : "en_SG",
    "localeVariant" : "HA",
    "validTravelerSource" : true,
    "validListingSource" : true,
    "humanReadableName" : "homeaway.com.sg",
    "listingUrlTemplate" : "%s/vacation-rentals/%s",
    "listingUrlTemplateWithUnit" : "%s/vacation-rentals/%s?unitId=%s",
    "alternativeBrandCode" : "HASG",
    "zoneId" : "Asia/Singapore",
    "currencies" : null,
    "hrefLang" : "en-sg",
    "brandType" : "homeaway",
    "fullLocale" : "en_SG_HA"
  },
  "homeaway_th" : {
    "name" : "homeaway_th",
    "brandId" : 149,
    "dataStore" : "WVR",
    "hosts" : [ {
      "domainName" : "homeaway.co.th",
      "httpScheme" : "http",
      "hostnameByEnvironment" : {
        "TEST" : "test.homeaway.co.th",
        "STAGE" : "stage.homeaway.co.th",
        "PRODUCTION" : "www.homeaway.co.th"
      },
      "redirectsTo" : null,
      "hostname" : "www.homeaway.co.th"
    } ],
    "locale" : "th_TH",
    "localeVariant" : "HA",
    "validTravelerSource" : true,
    "validListingSource" : true,
    "humanReadableName" : "homeaway.co.th",
    "listingUrlTemplate" : "%s/vacation-rentals/%s",
    "listingUrlTemplateWithUnit" : "%s/vacation-rentals/%s?unitId=%s",
    "alternativeBrandCode" : "HATH",
    "zoneId" : "Asia/Bangkok",
    "currencies" : null,
    "hrefLang" : "th",
    "brandType" : "homeaway",
    "fullLocale" : "th_TH_HA"
  },
  "homeaway_tr" : {
    "name" : "homeaway_tr",
    "brandId" : 630,
    "dataStore" : "HR",
    "hosts" : [ {
      "domainName" : "homeaway.com.tr",
      "httpScheme" : null,
      "hostnameByEnvironment" : {
        "TEST" : "test.homeaway.com.tr",
        "STAGE" : "stage.homeaway.com.tr",
        "PRODUCTION" : "www.homeaway.com.tr"
      },
      "redirectsTo" : null,
      "hostname" : "www.homeaway.com.tr"
    } ],
    "locale" : "tr_TR",
    "localeVariant" : "HA",
    "validTravelerSource" : true,
    "validListingSource" : true,
    "humanReadableName" : "HomeAway.com.tr",
    "listingUrlTemplate" : "%s/p%s",
    "listingUrlTemplateWithUnit" : "%s/p%s?uni_id=%s",
    "alternativeBrandCode" : "HATR",
    "zoneId" : "Europe/Istanbul",
    "currencies" : null,
    "hrefLang" : null,
    "brandType" : null,
    "fullLocale" : "tr_TR_HA"
  },
  "homeaway_tw" : {
    "name" : "homeaway_tw",
    "brandId" : 150,
    "dataStore" : "WVR",
    "hosts" : [ {
      "domainName" : "homeaway.tw",
      "httpScheme" : "http",
      "hostnameByEnvironment" : {
        "TEST" : "test.homeaway.tw",
        "STAGE" : "stage.homeaway.tw",
        "PRODUCTION" : "www.homeaway.tw"
      },
      "redirectsTo" : null,
      "hostname" : "www.homeaway.tw"
    } ],
    "locale" : "zh_TW",
    "localeVariant" : "HA",
    "validTravelerSource" : true,
    "validListingSource" : true,
    "humanReadableName" : "homeaway.tw",
    "listingUrlTemplate" : "%s/vacation-rentals/%s",
    "listingUrlTemplateWithUnit" : "%s/vacation-rentals/%s?unitId=%s",
    "alternativeBrandCode" : "HATW",
    "zoneId" : "Asia/Taipei",
    "currencies" : null,
    "hrefLang" : "zh-tw",
    "brandType" : "homeaway",
    "fullLocale" : "zh_TW_HA"
  },
  "homeaway_uk" : {
    "name" : "homeaway_uk",
    "brandId" : 611,
    "dataStore" : "HR",
    "hosts" : [ {
      "domainName" : "homeaway.co.uk",
      "httpScheme" : "https",
      "hostnameByEnvironment" : {
        "TEST" : "test.homeaway.co.uk",
        "STAGE" : "stage.homeaway.co.uk",
        "PRODUCTION" : "www.homeaway.co.uk"
      },
      "redirectsTo" : null,
      "hostname" : "www.homeaway.co.uk"
    }, {
      "domainName" : "holiday-rentals.co.uk",
      "httpScheme" : "https",
      "hostnameByEnvironment" : {
        "TEST" : "test.holiday-rentals.co.uk",
        "STAGE" : "stage.holiday-rentals.co.uk",
        "PRODUCTION" : "www.holiday-rentals.co.uk"
      },
      "redirectsTo" : null,
      "hostname" : "www.holiday-rentals.co.uk"
    }, {
      "domainName" : "holiday-rentals.com",
      "httpScheme" : "https",
      "hostnameByEnvironment" : {
        "TEST" : "test.holiday-rentals.com",
        "STAGE" : "stage.holiday-rentals.com",
        "PRODUCTION" : "www.holiday-rentals.com"
      },
      "redirectsTo" : "www.holiday-rentals.co.uk",
      "hostname" : "www.holiday-rentals.com"
    }, {
      "domainName" : "homeaway.co.uk",
      "httpScheme" : "https",
      "hostnameByEnvironment" : {
        "PRODUCTION" : "help.homeaway.co.uk"
      },
      "redirectsTo" : null,
      "hostname" : "help.homeaway.co.uk"
    } ],
    "locale" : "en_GB",
    "localeVariant" : "HA",
    "validTravelerSource" : true,
    "validListingSource" : true,
    "humanReadableName" : "HomeAway.co.uk",
    "listingUrlTemplate" : "%s/p%s",
    "listingUrlTemplateWithUnit" : "%s/p%s?uni_id=%s",
    "alternativeBrandCode" : "HAUK",
    "zoneId" : "Europe/London",
    "currencies" : [ "EURO", "BRITISH_POUND" ],
    "hrefLang" : "en-gb",
    "brandType" : "homeaway",
    "fullLocale" : "en_GB_HA"
  },
  "homeaway_us" : {
    "name" : "homeaway_us",
    "brandId" : 121,
    "dataStore" : "WVR",
    "hosts" : [ {
      "domainName" : "homeaway.com",
      "httpScheme" : "https",
      "hostnameByEnvironment" : {
        "TEST" : "test.homeaway.com",
        "STAGE" : "stage.homeaway.com",
        "PRODUCTION" : "www.homeaway.com"
      },
      "redirectsTo" : null,
      "hostname" : "www.homeaway.com"
    }, {
      "domainName" : "homeaway.com",
      "httpScheme" : "https",
      "hostnameByEnvironment" : {
        "TEST" : "help-test.homeaway.com",
        "STAGE" : "help-stage.homeaway.com",
        "PRODUCTION" : "help.homeaway.com"
      },
      "redirectsTo" : null,
      "hostname" : "help.homeaway.com"
    } ],
    "locale" : "en_US",
    "localeVariant" : "HA",
    "validTravelerSource" : true,
    "validListingSource" : true,
    "humanReadableName" : "HomeAway.com",
    "listingUrlTemplate" : "%s/vacation-rental/p%s",
    "listingUrlTemplateWithUnit" : "%s/vacation-rental/p%s?uni_id=%s",
    "alternativeBrandCode" : "HAUS",
    "zoneId" : "America/Chicago",
    "currencies" : [ "US_DOLLAR" ],
    "hrefLang" : "en",
    "brandType" : "homeaway",
    "fullLocale" : "en_US_HA"
  },
  "homeaway_uy" : {
    "name" : "homeaway_uy",
    "brandId" : 153,
    "dataStore" : "WVR",
    "hosts" : [ {
      "domainName" : "homeaway.com.uy",
      "httpScheme" : "http",
      "hostnameByEnvironment" : {
        "TEST" : "test.homeaway.com.uy",
        "STAGE" : "stage.homeaway.com.uy",
        "PRODUCTION" : "www.homeaway.com.uy"
      },
      "redirectsTo" : null,
      "hostname" : "www.homeaway.com.uy"
    } ],
    "locale" : "es_UY",
    "localeVariant" : "HA",
    "validTravelerSource" : true,
    "validListingSource" : true,
    "humanReadableName" : "homeaway.com.uy",
    "listingUrlTemplate" : "%s/vacation-rentals/%s",
    "listingUrlTemplateWithUnit" : "%s/vacation-rentals/%s?unitId=%s",
    "alternativeBrandCode" : "HAUY",
    "zoneId" : "America/Montevideo",
    "currencies" : null,
    "hrefLang" : "es-uy",
    "brandType" : "homeaway",
    "fullLocale" : "es_UY_HA"
  },
  "homeaway_vn" : {
    "name" : "homeaway_vn",
    "brandId" : 151,
    "dataStore" : "WVR",
    "hosts" : [ {
      "domainName" : "homeaway.com.vn",
      "httpScheme" : "http",
      "hostnameByEnvironment" : {
        "TEST" : "test.homeaway.com.vn",
        "STAGE" : "stage.homeaway.com.vn",
        "PRODUCTION" : "www.homeaway.com.vn"
      },
      "redirectsTo" : null,
      "hostname" : "www.homeaway.com.vn"
    } ],
    "locale" : "vi_VN",
    "localeVariant" : "HA",
    "validTravelerSource" : true,
    "validListingSource" : true,
    "humanReadableName" : "homeaway.com.vn",
    "listingUrlTemplate" : "%s/vacation-rentals/%s",
    "listingUrlTemplateWithUnit" : "%s/vacation-rentals/%s?unitId=%s",
    "alternativeBrandCode" : "HAVN",
    "zoneId" : "Asia/Ho_Chi_Minh",
    "currencies" : null,
    "hrefLang" : "vi",
    "brandType" : "homeaway",
    "fullLocale" : "vi_VN_HA"
  },
  "homelidays_de" : {
    "name" : "homelidays_de",
    "brandId" : 812,
    "dataStore" : "HR",
    "hosts" : [ {
      "domainName" : "homelidays.de",
      "httpScheme" : null,
      "hostnameByEnvironment" : {
        "TEST" : "test.homelidays.de",
        "STAGE" : "stage.homelidays.de",
        "PRODUCTION" : "www.homelidays.de"
      },
      "redirectsTo" : null,
      "hostname" : "www.homelidays.de"
    } ],
    "locale" : "de_DE",
    "localeVariant" : "HD",
    "validTravelerSource" : true,
    "validListingSource" : true,
    "humanReadableName" : "Homelidays.de",
    "listingUrlTemplate" : null,
    "listingUrlTemplateWithUnit" : null,
    "alternativeBrandCode" : "HDDE",
    "zoneId" : "Europe/Berlin",
    "currencies" : null,
    "hrefLang" : null,
    "brandType" : null,
    "fullLocale" : "de_DE_HD"
  },
  "homelidays_es" : {
    "name" : "homelidays_es",
    "brandId" : 814,
    "dataStore" : "HR",
    "hosts" : [ {
      "domainName" : "homelidays.es",
      "httpScheme" : null,
      "hostnameByEnvironment" : {
        "TEST" : "test.homelidays.es",
        "STAGE" : "stage.homelidays.es",
        "PRODUCTION" : "www.homelidays.es"
      },
      "redirectsTo" : null,
      "hostname" : "www.homelidays.es"
    }, {
      "domainName" : "homelidays.es",
      "httpScheme" : null,
      "hostnameByEnvironment" : {
        "PRODUCTION" : "ayuda.homelidays.es"
      },
      "redirectsTo" : null,
      "hostname" : "ayuda.homelidays.es"
    } ],
    "locale" : "es_ES",
    "localeVariant" : "HD",
    "validTravelerSource" : true,
    "validListingSource" : true,
    "humanReadableName" : "Homelidays.es",
    "listingUrlTemplate" : "%s/alojamiento/p%s",
    "listingUrlTemplateWithUnit" : "%s/alojamiento/p%s?uni_id=%s",
    "alternativeBrandCode" : "HDES",
    "zoneId" : "Europe/Madrid",
    "currencies" : [ "EURO" ],
    "hrefLang" : "es",
    "brandType" : "homelidays",
    "fullLocale" : "es_ES_HD"
  },
  "homelidays_fr" : {
    "name" : "homelidays_fr",
    "brandId" : 811,
    "dataStore" : "HR",
    "hosts" : [ {
      "domainName" : "homelidays.com",
      "httpScheme" : null,
      "hostnameByEnvironment" : {
        "TEST" : "test.homelidays.com",
        "STAGE" : "stage.homelidays.com",
        "PRODUCTION" : "www.homelidays.com"
      },
      "redirectsTo" : null,
      "hostname" : "www.homelidays.com"
    }, {
      "domainName" : "homelidays.com",
      "httpScheme" : null,
      "hostnameByEnvironment" : {
        "PRODUCTION" : "aide.homelidays.com"
      },
      "redirectsTo" : null,
      "hostname" : "aide.homelidays.com"
    } ],
    "locale" : "fr_FR",
    "localeVariant" : "HD",
    "validTravelerSource" : true,
    "validListingSource" : true,
    "humanReadableName" : "Homelidays.com",
    "listingUrlTemplate" : "%s/hebergement/p%s",
    "listingUrlTemplateWithUnit" : "%s/hebergement/p%s?uni_id=%s",
    "alternativeBrandCode" : "HDFR",
    "zoneId" : "Europe/Paris",
    "currencies" : [ "EURO" ],
    "hrefLang" : "fr",
    "brandType" : "homelidays",
    "fullLocale" : "fr_FR_HD"
  },
  "homelidays_it" : {
    "name" : "homelidays_it",
    "brandId" : 815,
    "dataStore" : "HR",
    "hosts" : [ {
      "domainName" : "homelidays.it",
      "httpScheme" : null,
      "hostnameByEnvironment" : {
        "TEST" : "test.homelidays.it",
        "STAGE" : "stage.homelidays.it",
        "PRODUCTION" : "www.homelidays.it"
      },
      "redirectsTo" : null,
      "hostname" : "www.homelidays.it"
    }, {
      "domainName" : "homelidays.it",
      "httpScheme" : null,
      "hostnameByEnvironment" : {
        "PRODUCTION" : "aiuto.homelidays.it"
      },
      "redirectsTo" : null,
      "hostname" : "aiuto.homelidays.it"
    } ],
    "locale" : "it_IT",
    "localeVariant" : "HD",
    "validTravelerSource" : true,
    "validListingSource" : true,
    "humanReadableName" : "Homelidays.it",
    "listingUrlTemplate" : "%s/casa-vacanze/p%s",
    "listingUrlTemplateWithUnit" : "%s/casa-vacanze/p%s?uni_id=%s",
    "alternativeBrandCode" : "HDIT",
    "zoneId" : "Europe/Rome",
    "currencies" : [ "EURO" ],
    "hrefLang" : "it",
    "brandType" : "homelidays",
    "fullLocale" : "it_IT_HD"
  },
  "homelidays_nl" : {
    "name" : "homelidays_nl",
    "brandId" : 816,
    "dataStore" : "HR",
    "hosts" : [ {
      "domainName" : "homelidays.nl",
      "httpScheme" : null,
      "hostnameByEnvironment" : {
        "TEST" : "test.homelidays.nl",
        "STAGE" : "stage.homelidays.nl",
        "PRODUCTION" : "www.homelidays.nl"
      },
      "redirectsTo" : null,
      "hostname" : "www.homelidays.nl"
    } ],
    "locale" : "nl_NL",
    "localeVariant" : "HD",
    "validTravelerSource" : true,
    "validListingSource" : true,
    "humanReadableName" : "Homelidays.nl",
    "listingUrlTemplate" : null,
    "listingUrlTemplateWithUnit" : null,
    "alternativeBrandCode" : "HDNL",
    "zoneId" : "Europe/Amsterdam",
    "currencies" : null,
    "hrefLang" : null,
    "brandType" : null,
    "fullLocale" : "nl_NL_HD"
  },
  "homelidays_pt" : {
    "name" : "homelidays_pt",
    "brandId" : 817,
    "dataStore" : "HR",
    "hosts" : [ {
      "domainName" : "homelidays.pt",
      "httpScheme" : null,
      "hostnameByEnvironment" : {
        "TEST" : "test.homelidays.pt",
        "STAGE" : "stage.homelidays.pt",
        "PRODUCTION" : "www.homelidays.pt"
      },
      "redirectsTo" : null,
      "hostname" : "www.homelidays.pt"
    } ],
    "locale" : "pt_PT",
    "localeVariant" : "HD",
    "validTravelerSource" : true,
    "validListingSource" : true,
    "humanReadableName" : "Homelidays.pt",
    "listingUrlTemplate" : null,
    "listingUrlTemplateWithUnit" : null,
    "alternativeBrandCode" : "HDPT",
    "zoneId" : "Europe/Lisbon",
    "currencies" : null,
    "hrefLang" : null,
    "brandType" : null,
    "fullLocale" : "pt_PT_HD"
  },
  "homelidays_uk" : {
    "name" : "homelidays_uk",
    "brandId" : 813,
    "dataStore" : "HR",
    "hosts" : [ {
      "domainName" : "homelidays.co.uk",
      "httpScheme" : null,
      "hostnameByEnvironment" : {
        "TEST" : "test.homelidays.co.uk",
        "STAGE" : "stage.homelidays.co.uk",
        "PRODUCTION" : "www.homelidays.co.uk"
      },
      "redirectsTo" : null,
      "hostname" : "www.homelidays.co.uk"
    } ],
    "locale" : "en_GB",
    "localeVariant" : "HD",
    "validTravelerSource" : true,
    "validListingSource" : true,
    "humanReadableName" : "Homelidays.co.uk",
    "listingUrlTemplate" : null,
    "listingUrlTemplateWithUnit" : null,
    "alternativeBrandCode" : "HDUK",
    "zoneId" : "Europe/London",
    "currencies" : null,
    "hrefLang" : null,
    "brandType" : null,
    "fullLocale" : "en_GB_HD"
  },
  "itravex" : {
    "name" : "itravex",
    "brandId" : 0,
    "dataStore" : "ITRAVEX",
    "hosts" : [ {
      "domainName" : "itravex.com",
      "httpScheme" : null,
      "hostnameByEnvironment" : {
        "TEST" : "test.itravex.com",
        "STAGE" : "stage.itravex.com",
        "PRODUCTION" : "www.itravex.com"
      },
      "redirectsTo" : null,
      "hostname" : "www.itravex.com"
    } ],
    "locale" : "en_US",
    "localeVariant" : null,
    "validTravelerSource" : false,
    "validListingSource" : false,
    "humanReadableName" : "itravex.com",
    "listingUrlTemplate" : null,
    "listingUrlTemplateWithUnit" : null,
    "alternativeBrandCode" : null,
    "zoneId" : "America/Chicago",
    "currencies" : null,
    "hrefLang" : null,
    "brandType" : null,
    "fullLocale" : "en_US"
  },
  "luxury_de" : {
    "name" : "luxury_de",
    "brandId" : 658,
    "dataStore" : "VV",
    "hosts" : [ {
      "domainName" : "luxus.fewo-direkt.de",
      "httpScheme" : null,
      "hostnameByEnvironment" : {
        "TEST" : "luxus-test.fewo-direkt.de",
        "STAGE" : "luxus-stage.fewo-direkt.de",
        "PRODUCTION" : "luxus.fewo-direkt.de"
      },
      "redirectsTo" : null,
      "hostname" : "luxus.fewo-direkt.de"
    } ],
    "locale" : "de_DE",
    "localeVariant" : "LUX",
    "validTravelerSource" : true,
    "validListingSource" : true,
    "humanReadableName" : "luxus.FeWo-direkt.de",
    "listingUrlTemplate" : "%s/ferienwohnung-ferienhaus/p%s",
    "listingUrlTemplateWithUnit" : "%s/ferienwohnung-ferienhaus/p%s?uni_id=%s",
    "alternativeBrandCode" : "LXDE",
    "zoneId" : "Europe/Berlin",
    "currencies" : null,
    "hrefLang" : "de",
    "brandType" : "luxury",
    "fullLocale" : "de_DE_LUX"
  },
  "luxury_uk" : {
    "name" : "luxury_uk",
    "brandId" : 636,
    "dataStore" : "HR",
    "hosts" : [ {
      "domainName" : "luxury.homeaway.co.uk",
      "httpScheme" : null,
      "hostnameByEnvironment" : {
        "TEST" : "luxury-test.homeaway.co.uk",
        "STAGE" : "luxury-stage.homeaway.co.uk",
        "PRODUCTION" : "luxury.homeaway.co.uk"
      },
      "redirectsTo" : null,
      "hostname" : "luxury.homeaway.co.uk"
    } ],
    "locale" : "en_GB",
    "localeVariant" : "LUX",
    "validTravelerSource" : true,
    "validListingSource" : true,
    "humanReadableName" : "luxury.HomeAway.co.uk",
    "listingUrlTemplate" : "%s/p%s",
    "listingUrlTemplateWithUnit" : "%s/p%s?uni_id=%s",
    "alternativeBrandCode" : "LXUK",
    "zoneId" : "Europe/London",
    "currencies" : null,
    "hrefLang" : "en-gb",
    "brandType" : "luxury",
    "fullLocale" : "en_GB_LUX"
  },
  "luxury_us" : {
    "name" : "luxury_us",
    "brandId" : 139,
    "dataStore" : "WVR",
    "hosts" : [ {
      "domainName" : "luxury.homeaway.com",
      "httpScheme" : null,
      "hostnameByEnvironment" : {
        "TEST" : "luxury-test.homeaway.com",
        "STAGE" : "luxury-stage.homeaway.com",
        "PRODUCTION" : "luxury.homeaway.com"
      },
      "redirectsTo" : null,
      "hostname" : "luxury.homeaway.com"
    } ],
    "locale" : "en_US",
    "localeVariant" : "LUX",
    "validTravelerSource" : true,
    "validListingSource" : true,
    "humanReadableName" : "luxury.HomeAway.com",
    "listingUrlTemplate" : "%s/vacation-rental/p%s",
    "listingUrlTemplateWithUnit" : "%s/vacation-rental/p%s?uni_id=%s",
    "alternativeBrandCode" : "LXUS",
    "zoneId" : "America/Chicago",
    "currencies" : null,
    "hrefLang" : "en",
    "brandType" : "luxury",
    "fullLocale" : "en_US_LUX"
  },
  "odhr" : {
    "name" : "odhr",
    "brandId" : 661,
    "dataStore" : "HR",
    "hosts" : [ {
      "domainName" : "ownersdirect.co.uk",
      "httpScheme" : null,
      "hostnameByEnvironment" : {
        "TEST" : "test.ownersdirect.co.uk",
        "STAGE" : "stage.ownersdirect.co.uk",
        "PRODUCTION" : "www.ownersdirect.co.uk"
      },
      "redirectsTo" : null,
      "hostname" : "www.ownersdirect.co.uk"
    }, {
      "domainName" : "ownersdirect.co.uk",
      "httpScheme" : null,
      "hostnameByEnvironment" : {
        "PRODUCTION" : "help.ownersdirect.co.uk"
      },
      "redirectsTo" : null,
      "hostname" : "help.ownersdirect.co.uk"
    } ],
    "locale" : "en_GB",
    "localeVariant" : "ODHR",
    "validTravelerSource" : true,
    "validListingSource" : true,
    "humanReadableName" : "OwnersDirect.co.uk",
    "listingUrlTemplate" : "%s/accommodation/p%s",
    "listingUrlTemplateWithUnit" : "%s/accommodation/p%s?uni_id=%s",
    "alternativeBrandCode" : "ODUK",
    "zoneId" : "Europe/London",
    "currencies" : [ "EURO", "BRITISH_POUND" ],
    "hrefLang" : null,
    "brandType" : null,
    "fullLocale" : "en_GB_ODHR"
  },
  "rentors" : {
    "name" : "rentors",
    "brandId" : 211,
    "dataStore" : "RENTORS",
    "hosts" : [ {
      "domainName" : "homeawayconnect.com",
      "httpScheme" : null,
      "hostnameByEnvironment" : {
        "TEST" : "test.homeawayconnect.com",
        "STAGE" : "stage.homeawayconnect.com",
        "PRODUCTION" : "www.homeawayconnect.com"
      },
      "redirectsTo" : null,
      "hostname" : "www.homeawayconnect.com"
    } ],
    "locale" : "en_US",
    "localeVariant" : null,
    "validTravelerSource" : false,
    "validListingSource" : false,
    "humanReadableName" : "HomeAwayConnect.com",
    "listingUrlTemplate" : null,
    "listingUrlTemplateWithUnit" : null,
    "alternativeBrandCode" : "HCUS",
    "zoneId" : "America/Chicago",
    "currencies" : null,
    "hrefLang" : null,
    "brandType" : null,
    "fullLocale" : "en_US"
  },
  "stayz" : {
    "name" : "stayz",
    "brandId" : 138,
    "dataStore" : "WVR",
    "hosts" : [ {
      "domainName" : "stayz.com.au",
      "httpScheme" : null,
      "hostnameByEnvironment" : {
        "TEST" : "test.stayz.com.au",
        "STAGE" : "stage.stayz.com.au",
        "PRODUCTION" : "www.stayz.com.au"
      },
      "redirectsTo" : null,
      "hostname" : "www.stayz.com.au"
    } ],
    "locale" : "en_AU",
    "localeVariant" : "SZ",
    "validTravelerSource" : true,
    "validListingSource" : true,
    "humanReadableName" : "Stayz.com.au",
    "listingUrlTemplate" : "%s/accommodation/p%s",
    "listingUrlTemplateWithUnit" : "%s/accommodation/p%s?uni_id=%s",
    "alternativeBrandCode" : "HASZ",
    "zoneId" : "Australia/Sydney",
    "currencies" : [ "AUSTRALIA_DOLLAR" ],
    "hrefLang" : null,
    "brandType" : null,
    "fullLocale" : "en_AU_SZ"
  },
  "toprural" : {
    "name" : "toprural",
    "brandId" : 631,
    "dataStore" : "HR",
    "hosts" : [ {
      "domainName" : "toprural.com",
      "httpScheme" : null,
      "hostnameByEnvironment" : {
        "TEST" : "test.toprural.com",
        "STAGE" : "stage.toprural.com",
        "PRODUCTION" : "www.toprural.com"
      },
      "redirectsTo" : null,
      "hostname" : "www.toprural.com"
    } ],
    "locale" : "es_ES",
    "localeVariant" : "TR",
    "validTravelerSource" : true,
    "validListingSource" : true,
    "humanReadableName" : "TopRural.es",
    "listingUrlTemplate" : null,
    "listingUrlTemplateWithUnit" : null,
    "alternativeBrandCode" : "HRTR",
    "zoneId" : "Europe/Madrid",
    "currencies" : null,
    "hrefLang" : null,
    "brandType" : null,
    "fullLocale" : "es_ES_TR"
  },
  "travelmob" : {
    "name" : "travelmob",
    "brandId" : 136,
    "dataStore" : "WVR",
    "hosts" : [ {
      "domainName" : "travelmob.com",
      "httpScheme" : null,
      "hostnameByEnvironment" : {
        "TEST" : "test.travelmob.com",
        "STAGE" : "stage.travelmob.com",
        "PRODUCTION" : "www.travelmob.com"
      },
      "redirectsTo" : null,
      "hostname" : "www.travelmob.com"
    } ],
    "locale" : "en_US",
    "localeVariant" : "TM",
    "validTravelerSource" : true,
    "validListingSource" : true,
    "humanReadableName" : "Travelmob.com",
    "listingUrlTemplate" : null,
    "listingUrlTemplateWithUnit" : null,
    "alternativeBrandCode" : "HATM",
    "zoneId" : "America/Chicago",
    "currencies" : null,
    "hrefLang" : null,
    "brandType" : null,
    "fullLocale" : "en_US_TM"
  },
  "travelmob_au" : {
    "name" : "travelmob_au",
    "brandId" : 159,
    "dataStore" : "WVR",
    "hosts" : [ {
      "domainName" : "au.travelmob.com",
      "httpScheme" : null,
      "hostnameByEnvironment" : {
        "TEST" : "test.au.travelmob.com",
        "STAGE" : "stage.au.travelmob.com",
        "PRODUCTION" : "au.travelmob.com"
      },
      "redirectsTo" : null,
      "hostname" : "au.travelmob.com"
    } ],
    "locale" : "en_AU",
    "localeVariant" : "TM",
    "validTravelerSource" : true,
    "validListingSource" : true,
    "humanReadableName" : "au.travelmob.com",
    "listingUrlTemplate" : "%s/vacation-rentals/%s",
    "listingUrlTemplateWithUnit" : "%s/vacation-rentals/%s?unitId=%s",
    "alternativeBrandCode" : "TMAU",
    "zoneId" : "Australia/Sydney",
    "currencies" : null,
    "hrefLang" : null,
    "brandType" : null,
    "fullLocale" : "en_AU_TM"
  },
  "travelmob_ca" : {
    "name" : "travelmob_ca",
    "brandId" : 160,
    "dataStore" : "WVR",
    "hosts" : [ {
      "domainName" : "ca.travelmob.com",
      "httpScheme" : null,
      "hostnameByEnvironment" : {
        "TEST" : "test.ca.travelmob.com",
        "STAGE" : "stage.ca.travelmob.com",
        "PRODUCTION" : "ca.travelmob.com"
      },
      "redirectsTo" : null,
      "hostname" : "ca.travelmob.com"
    } ],
    "locale" : "en_CA",
    "localeVariant" : "TM",
    "validTravelerSource" : true,
    "validListingSource" : true,
    "humanReadableName" : "ca.travelmob.com",
    "listingUrlTemplate" : "%s/vacation-rentals/%s",
    "listingUrlTemplateWithUnit" : "%s/vacation-rentals/%s?unitId=%s",
    "alternativeBrandCode" : "TMCA",
    "zoneId" : "America/Montreal",
    "currencies" : null,
    "hrefLang" : null,
    "brandType" : null,
    "fullLocale" : "en_CA_TM"
  },
  "travelmob_de" : {
    "name" : "travelmob_de",
    "brandId" : 164,
    "dataStore" : "WVR",
    "hosts" : [ {
      "domainName" : "de.travelmob.com",
      "httpScheme" : null,
      "hostnameByEnvironment" : {
        "TEST" : "test.de.travelmob.com",
        "STAGE" : "stage.de.travelmob.com",
        "PRODUCTION" : "de.travelmob.com"
      },
      "redirectsTo" : null,
      "hostname" : "de.travelmob.com"
    } ],
    "locale" : "de_DE",
    "localeVariant" : "TM",
    "validTravelerSource" : true,
    "validListingSource" : true,
    "humanReadableName" : "de.travelmob.com",
    "listingUrlTemplate" : "%s/vacation-rentals/%s",
    "listingUrlTemplateWithUnit" : "%s/vacation-rentals/%s?unitId=%s",
    "alternativeBrandCode" : "TMDE",
    "zoneId" : "Europe/Berlin",
    "currencies" : null,
    "hrefLang" : null,
    "brandType" : null,
    "fullLocale" : "de_DE_TM"
  },
  "travelmob_es" : {
    "name" : "travelmob_es",
    "brandId" : 162,
    "dataStore" : "WVR",
    "hosts" : [ {
      "domainName" : "es.travelmob.com",
      "httpScheme" : null,
      "hostnameByEnvironment" : {
        "TEST" : "test.es.travelmob.com",
        "STAGE" : "stage.es.travelmob.com",
        "PRODUCTION" : "es.travelmob.com"
      },
      "redirectsTo" : null,
      "hostname" : "es.travelmob.com"
    } ],
    "locale" : "es_ES",
    "localeVariant" : "TM",
    "validTravelerSource" : true,
    "validListingSource" : true,
    "humanReadableName" : "es.travelmob.com",
    "listingUrlTemplate" : "%s/vacation-rentals/%s",
    "listingUrlTemplateWithUnit" : "%s/vacation-rentals/%s?unitId=%s",
    "alternativeBrandCode" : "TMES",
    "zoneId" : "Europe/Madrid",
    "currencies" : null,
    "hrefLang" : null,
    "brandType" : null,
    "fullLocale" : "es_ES_TM"
  },
  "travelmob_fr" : {
    "name" : "travelmob_fr",
    "brandId" : 161,
    "dataStore" : "WVR",
    "hosts" : [ {
      "domainName" : "fr.travelmob.com",
      "httpScheme" : null,
      "hostnameByEnvironment" : {
        "TEST" : "test.fr.travelmob.com",
        "STAGE" : "stage.fr.travelmob.com",
        "PRODUCTION" : "fr.travelmob.com"
      },
      "redirectsTo" : null,
      "hostname" : "fr.travelmob.com"
    } ],
    "locale" : "fr_FR",
    "localeVariant" : "TM",
    "validTravelerSource" : true,
    "validListingSource" : true,
    "humanReadableName" : "fr.travelmob.com",
    "listingUrlTemplate" : "%s/vacation-rentals/%s",
    "listingUrlTemplateWithUnit" : "%s/vacation-rentals/%s?unitId=%s",
    "alternativeBrandCode" : "TMFR",
    "zoneId" : "Europe/Paris",
    "currencies" : null,
    "hrefLang" : null,
    "brandType" : null,
    "fullLocale" : "fr_FR_TM"
  },
  "travelmob_it" : {
    "name" : "travelmob_it",
    "brandId" : 163,
    "dataStore" : "WVR",
    "hosts" : [ {
      "domainName" : "it.travelmob.com",
      "httpScheme" : null,
      "hostnameByEnvironment" : {
        "TEST" : "test.it.travelmob.com",
        "STAGE" : "stage.it.travelmob.com",
        "PRODUCTION" : "it.travelmob.com"
      },
      "redirectsTo" : null,
      "hostname" : "it.travelmob.com"
    } ],
    "locale" : "it_IT",
    "localeVariant" : "TM",
    "validTravelerSource" : true,
    "validListingSource" : true,
    "humanReadableName" : "it.travelmob.com",
    "listingUrlTemplate" : "%s/vacation-rentals/%s",
    "listingUrlTemplateWithUnit" : "%s/vacation-rentals/%s?unitId=%s",
    "alternativeBrandCode" : "TMIT",
    "zoneId" : "Europe/Rome",
    "currencies" : null,
    "hrefLang" : null,
    "brandType" : null,
    "fullLocale" : "it_IT_TM"
  },
  "travelmob_uk" : {
    "name" : "travelmob_uk",
    "brandId" : 158,
    "dataStore" : "WVR",
    "hosts" : [ {
      "domainName" : "uk.travelmob.com",
      "httpScheme" : null,
      "hostnameByEnvironment" : {
        "TEST" : "test.uk.travelmob.com",
        "STAGE" : "stage.uk.travelmob.com",
        "PRODUCTION" : "uk.travelmob.com"
      },
      "redirectsTo" : null,
      "hostname" : "uk.travelmob.com"
    } ],
    "locale" : "en_GB",
    "localeVariant" : "TM",
    "validTravelerSource" : true,
    "validListingSource" : true,
    "humanReadableName" : "uk.travelmob.com",
    "listingUrlTemplate" : "%s/vacation-rentals/%s",
    "listingUrlTemplateWithUnit" : "%s/vacation-rentals/%s?unitId=%s",
    "alternativeBrandCode" : "TMUK",
    "zoneId" : "Europe/London",
    "currencies" : null,
    "hrefLang" : null,
    "brandType" : null,
    "fullLocale" : "en_GB_TM"
  },
  "triphomes" : {
    "name" : "triphomes",
    "brandId" : 221,
    "dataStore" : "HAPM",
    "hosts" : [ {
      "domainName" : "triphomes.com",
      "httpScheme" : null,
      "hostnameByEnvironment" : {
        "TEST" : "test.triphomes.com",
        "STAGE" : "stage.triphomes.com",
        "PRODUCTION" : "www.triphomes.com"
      },
      "redirectsTo" : "www.homeaway.com",
      "hostname" : "www.triphomes.com"
    } ],
    "locale" : "en_US",
    "localeVariant" : null,
    "validTravelerSource" : false,
    "validListingSource" : true,
    "humanReadableName" : "Triphomes.com",
    "listingUrlTemplate" : null,
    "listingUrlTemplateWithUnit" : null,
    "alternativeBrandCode" : "THUS",
    "zoneId" : "America/Chicago",
    "currencies" : null,
    "hrefLang" : null,
    "brandType" : null,
    "fullLocale" : "en_US"
  },
  "vnto" : {
    "name" : "vnto",
    "brandId" : 851,
    "dataStore" : "VILLANAO",
    "hosts" : [ {
      "domainName" : "villanao.fr",
      "httpScheme" : null,
      "hostnameByEnvironment" : {
        "PRODUCTION" : "www.villanao.fr"
      },
      "redirectsTo" : null,
      "hostname" : "www.villanao.fr"
    } ],
    "locale" : "fr_FR",
    "localeVariant" : null,
    "validTravelerSource" : false,
    "validListingSource" : true,
    "humanReadableName" : "Villanao.fr",
    "listingUrlTemplate" : null,
    "listingUrlTemplateWithUnit" : null,
    "alternativeBrandCode" : "VNFR",
    "zoneId" : "Europe/Paris",
    "currencies" : null,
    "hrefLang" : null,
    "brandType" : null,
    "fullLocale" : "fr_FR"
  },
  "vr" : {
    "name" : "vr",
    "brandId" : 311,
    "dataStore" : "WVR",
    "hosts" : [ {
      "domainName" : "vacationrentals.com",
      "httpScheme" : null,
      "hostnameByEnvironment" : {
        "TEST" : "test.vacationrentals.com",
        "STAGE" : "stage.vacationrentals.com",
        "PRODUCTION" : "www.vacationrentals.com"
      },
      "redirectsTo" : null,
      "hostname" : "www.vacationrentals.com"
    }, {
      "domainName" : "vacationrentals.com",
      "httpScheme" : null,
      "hostnameByEnvironment" : {
        "PRODUCTION" : "help.vacationrentals.com"
      },
      "redirectsTo" : null,
      "hostname" : "help.vacationrentals.com"
    } ],
    "locale" : "en_US",
    "localeVariant" : "VR",
    "validTravelerSource" : true,
    "validListingSource" : true,
    "humanReadableName" : "VacationRentals.com",
    "listingUrlTemplate" : "%s/listing/p%s",
    "listingUrlTemplateWithUnit" : "%s/listing/p%s?uni_id=%s",
    "alternativeBrandCode" : "VRUS",
    "zoneId" : "America/Chicago",
    "currencies" : [ "US_DOLLAR" ],
    "hrefLang" : null,
    "brandType" : null,
    "fullLocale" : "en_US_VR"
  },
  "vrbo" : {
    "name" : "vrbo",
    "brandId" : 321,
    "dataStore" : "VRBO",
    "hosts" : [ {
      "domainName" : "vrbo.com",
      "httpScheme" : null,
      "hostnameByEnvironment" : {
        "TEST" : "test.vrbo.com",
        "STAGE" : "stage.vrbo.com",
        "PRODUCTION" : "www.vrbo.com"
      },
      "redirectsTo" : null,
      "hostname" : "www.vrbo.com"
    }, {
      "domainName" : "vrbo.com",
      "httpScheme" : null,
      "hostnameByEnvironment" : {
        "TEST" : "admin-test.vrbo.com",
        "STAGE" : "admin-stage.vrbo.com",
        "PRODUCTION" : "admin.vrbo.com"
      },
      "redirectsTo" : null,
      "hostname" : "admin.vrbo.com"
    }, {
      "domainName" : "vrbo.com",
      "httpScheme" : null,
      "hostnameByEnvironment" : {
        "TEST" : "help-test.vrbo.com",
        "STAGE" : "help-stage.vrbo.com",
        "PRODUCTION" : "help.vrbo.com"
      },
      "redirectsTo" : null,
      "hostname" : "help.vrbo.com"
    } ],
    "locale" : "en_US",
    "localeVariant" : "VRBO",
    "validTravelerSource" : true,
    "validListingSource" : true,
    "humanReadableName" : "VRBO.com",
    "listingUrlTemplate" : "%s/%s",
    "listingUrlTemplateWithUnit" : "%s/%s?unitId=%s",
    "alternativeBrandCode" : "VRBO",
    "zoneId" : "America/Chicago",
    "currencies" : [ "US_DOLLAR" ],
    "hrefLang" : null,
    "brandType" : null,
    "fullLocale" : "en_US_VRBO"
  },
  "yesbookit" : {
    "name" : "yesbookit",
    "brandId" : 87,
    "dataStore" : "WVR",
    "hosts" : [ {
      "domainName" : "yesbookit.com",
      "httpScheme" : null,
      "hostnameByEnvironment" : {
        "TEST" : "test.yesbookit.com",
        "STAGE" : "stage.yesbookit.com",
        "PRODUCTION" : "www.yesbookit.com"
      },
      "redirectsTo" : null,
      "hostname" : "www.yesbookit.com"
    } ],
    "locale" : "en_AU",
    "localeVariant" : "YBI",
    "validTravelerSource" : false,
    "validListingSource" : true,
    "humanReadableName" : "Yesbookit.com",
    "listingUrlTemplate" : null,
    "listingUrlTemplateWithUnit" : null,
    "alternativeBrandCode" : "HABI",
    "zoneId" : "Australia/Sydney",
    "currencies" : null,
    "hrefLang" : null,
    "brandType" : null,
    "fullLocale" : "en_AU_YBI"
  }
}
